21,21,2021-10-07 00:00:00 +0000
63,63,2021-10-08 00:00:00 +0000
64,64,2021-10-09 00:00:00 +0000
128,126,2021-10-10 00:00:00 +0000
243,216,2021-10-20 00:00:00 +0000
274,247,2021-11-07 00:00:00 +0000
323,292,2021-12-14 00:00:00 +0000
378,355,2022-01-06 11:33:48 +0000
396,371,2022-01-07 15:49:13 +0000
396,371,2022-01-09 15:30:01 +0000
405,379,2022-01-10 16:49:05 +0000
405,379,2022-01-11 22:50:36 +0000
416,390,2022-01-14 17:04:23 +0000
419,393,2022-01-17 22:44:58 +0000
421,395,2022-01-24 18:42:28 +0000
441,415,2022-01-30 15:05:21 +0000
445,415,2022-02-07 09:25:31 +0000
462,432,2022-02-13 23:06:53 +0000
468,437,2022-02-15 12:10:17 +0000
468,437,2022-02-16 16:15:03 +0000
477,446,2022-02-20 23:07:41 +0000
489,458,2022-02-22 11:06:41 +0000
489,458,2022-02-27 23:07:23 +0000
500,466,2022-02-28 23:16:51 +0000
505,467,2022-03-02 09:04:56 +0000
509,471,2022-03-07 16:42:19 +0000
509,471,2022-03-08 21:38:38 +0000
516,476,2022-03-13 23:08:08 +0000
518,478,2022-03-20 23:08:49 +0000
519,479,2022-03-27 22:08:56 +0000
523,483,2022-04-12 17:02:41 +0000
543,503,2022-04-27 08:33:15 +0000
543,503,2022-05-01 16:47:43 +0000
543,503,2022-05-04 16:35:08 +0000
543,503,2022-05-08 08:55:23 +0000
543,503,2022-05-15 22:08:16 +0000
543,503,2022-05-22 22:08:22 +0000
543,503,2022-05-29 22:08:33 +0000
543,503,2022-06-05 22:08:14 +0000
557,517,2022-06-12 22:13:36 +0000
557,517,2022-06-19 22:13:25 +0000
557,517,2022-06-26 15:51:39 +0000
557,517,2022-07-03 22:08:55 +0000
557,517,2022-07-10 22:08:43 +0000
566,526,2022-07-17 22:08:35 +0000
566,526,2022-07-24 22:09:38 +0000
566,526,2022-07-31 22:09:03 +0000
567,527,2022-08-07 22:10:55 +0000
567,527,2022-08-14 22:09:47 +0000
567,527,2022-08-21 22:09:48 +0000
575,535,2022-11-01 18:17:09 +0000
576,536,2022-11-03 17:47:08 +0000
581,541,2022-11-06 23:08:58 +0000
581,541,2022-11-12 16:17:41 +0000
581,541,2022-11-13 23:11:56 +0000
582,542,2022-11-20 23:11:41 +0000
582,542,2022-11-27 23:10:52 +0000
583,542,2022-12-04 23:11:35 +0000
583,542,2022-12-11 23:10:35 +0000
583,542,2022-12-18 23:10:14 +0000
583,542,2022-12-25 23:14:33 +0000
583,542,2022-12-30 16:43:53 +0000
583,542,2023-01-01 23:11:09 +0000
583,542,2023-01-08 23:14:35 +0000
584,543,2023-01-14 17:28:03 +0000
584,543,2023-01-15 23:11:39 +0000
584,543,2023-01-17 11:40:30 +0000
584,543,2023-01-19 14:50:33 +0000
